%!PS-Adobe-2.0 EPSF-2.0
%%Title: /home/maarten/vu/semweb/final/diagrams/ontology.dia
%%Creator: Dia v0.97.2
%%CreationDate: Fri Oct  5 09:25:58 2012
%%For: maarten
%%Orientation: Portrait
%%Magnification: 1.0000
%%BoundingBox: 0 0 1561 829
%%BeginSetup
%%EndSetup
%%EndComments
%%BeginProlog
[ /.notdef /.notdef /.notdef /.notdef /.notdef /.notdef /.notdef /.notdef /.notdef /.notdef
/.notdef /.notdef /.notdef /.notdef /.notdef /.notdef /.notdef /.notdef /.notdef /.notdef
/.notdef /.notdef /.notdef /.notdef /.notdef /.notdef /.notdef /.notdef /.notdef /.notdef
/.notdef /.notdef /space /exclam /quotedbl /numbersign /dollar /percent /ampersand /quoteright
/parenleft /parenright /asterisk /plus /comma /hyphen /period /slash /zero /one
/two /three /four /five /six /seven /eight /nine /colon /semicolon
/less /equal /greater /question /at /A /B /C /D /E
/F /G /H /I /J /K /L /M /N /O
/P /Q /R /S /T /U /V /W /X /Y
/Z /bracketleft /backslash /bracketright /asciicircum /underscore /quoteleft /a /b /c
/d /e /f /g /h /i /j /k /l /m
/n /o /p /q /r /s /t /u /v /w
/x /y /z /braceleft /bar /braceright /asciitilde /.notdef /.notdef /.notdef
/.notdef /.notdef /.notdef /.notdef /.notdef /.notdef /.notdef /.notdef /.notdef /.notdef
/.notdef /.notdef /.notdef /.notdef /.notdef /.notdef /.notdef /.notdef /.notdef /.notdef
/.notdef /.notdef /.notdef /.notdef /.notdef /.notdef /.notdef /.notdef /.notdef /.notdef
/space /exclamdown /cent /sterling /currency /yen /brokenbar /section /dieresis /copyright
/ordfeminine /guillemotleft /logicalnot /hyphen /registered /macron /degree /plusminus /twosuperior /threesuperior
/acute /mu /paragraph /periodcentered /cedilla /onesuperior /ordmasculine /guillemotright /onequarter /onehalf
/threequarters /questiondown /Agrave /Aacute /Acircumflex /Atilde /Adieresis /Aring /AE /Ccedilla
/Egrave /Eacute /Ecircumflex /Edieresis /Igrave /Iacute /Icircumflex /Idieresis /Eth /Ntilde
/Ograve /Oacute /Ocircumflex /Otilde /Odieresis /multiply /Oslash /Ugrave /Uacute /Ucircumflex
/Udieresis /Yacute /Thorn /germandbls /agrave /aacute /acircumflex /atilde /adieresis /aring
/ae /ccedilla /egrave /eacute /ecircumflex /edieresis /igrave /iacute /icircumflex /idieresis
/eth /ntilde /ograve /oacute /ocircumflex /otilde /odieresis /divide /oslash /ugrave
/uacute /ucircumflex /udieresis /yacute /thorn /ydieresis] /isolatin1encoding exch def
/cp {closepath} bind def
/c {curveto} bind def
/f {fill} bind def
/a {arc} bind def
/ef {eofill} bind def
/ex {exch} bind def
/gr {grestore} bind def
/gs {gsave} bind def
/sa {save} bind def
/rs {restore} bind def
/l {lineto} bind def
/m {moveto} bind def
/rm {rmoveto} bind def
/n {newpath} bind def
/s {stroke} bind def
/sh {show} bind def
/slc {setlinecap} bind def
/slj {setlinejoin} bind def
/slw {setlinewidth} bind def
/srgb {setrgbcolor} bind def
/rot {rotate} bind def
/sc {scale} bind def
/sd {setdash} bind def
/ff {findfont} bind def
/sf {setfont} bind def
/scf {scalefont} bind def
/sw {stringwidth pop} bind def
/tr {translate} bind def

/ellipsedict 8 dict def
ellipsedict /mtrx matrix put
/ellipse
{ ellipsedict begin
   /endangle exch def
   /startangle exch def
   /yrad exch def
   /xrad exch def
   /y exch def
   /x exch def   /savematrix mtrx currentmatrix def
   x y tr xrad yrad sc
   0 0 1 startangle endangle arc
   savematrix setmatrix
   end
} def

/mergeprocs {
dup length
3 -1 roll
dup
length
dup
5 1 roll
3 -1 roll
add
array cvx
dup
3 -1 roll
0 exch
putinterval
dup
4 2 roll
putinterval
} bind def
/Times-Roman-latin1
    /Times-Roman findfont
    dup length dict begin
	{1 index /FID ne {def} {pop pop} ifelse} forall
	/Encoding isolatin1encoding def
    currentdict end
definefont pop
/Times-Italic-latin1
    /Times-Italic findfont
    dup length dict begin
	{1 index /FID ne {def} {pop pop} ifelse} forall
	/Encoding isolatin1encoding def
    currentdict end
definefont pop
/Times-Bold-latin1
    /Times-Bold findfont
    dup length dict begin
	{1 index /FID ne {def} {pop pop} ifelse} forall
	/Encoding isolatin1encoding def
    currentdict end
definefont pop
/Times-BoldItalic-latin1
    /Times-BoldItalic findfont
    dup length dict begin
	{1 index /FID ne {def} {pop pop} ifelse} forall
	/Encoding isolatin1encoding def
    currentdict end
definefont pop
/AvantGarde-Gothic-latin1
    /AvantGarde-Gothic findfont
    dup length dict begin
	{1 index /FID ne {def} {pop pop} ifelse} forall
	/Encoding isolatin1encoding def
    currentdict end
definefont pop
/AvantGarde-BookOblique-latin1
    /AvantGarde-BookOblique findfont
    dup length dict begin
	{1 index /FID ne {def} {pop pop} ifelse} forall
	/Encoding isolatin1encoding def
    currentdict end
definefont pop
/AvantGarde-Demi-latin1
    /AvantGarde-Demi findfont
    dup length dict begin
	{1 index /FID ne {def} {pop pop} ifelse} forall
	/Encoding isolatin1encoding def
    currentdict end
definefont pop
/AvantGarde-DemiOblique-latin1
    /AvantGarde-DemiOblique findfont
    dup length dict begin
	{1 index /FID ne {def} {pop pop} ifelse} forall
	/Encoding isolatin1encoding def
    currentdict end
definefont pop
/Bookman-Light-latin1
    /Bookman-Light findfont
    dup length dict begin
	{1 index /FID ne {def} {pop pop} ifelse} forall
	/Encoding isolatin1encoding def
    currentdict end
definefont pop
/Bookman-LightItalic-latin1
    /Bookman-LightItalic findfont
    dup length dict begin
	{1 index /FID ne {def} {pop pop} ifelse} forall
	/Encoding isolatin1encoding def
    currentdict end
definefont pop
/Bookman-Demi-latin1
    /Bookman-Demi findfont
    dup length dict begin
	{1 index /FID ne {def} {pop pop} ifelse} forall
	/Encoding isolatin1encoding def
    currentdict end
definefont pop
/Bookman-DemiItalic-latin1
    /Bookman-DemiItalic findfont
    dup length dict begin
	{1 index /FID ne {def} {pop pop} ifelse} forall
	/Encoding isolatin1encoding def
    currentdict end
definefont pop
/Courier-latin1
    /Courier findfont
    dup length dict begin
	{1 index /FID ne {def} {pop pop} ifelse} forall
	/Encoding isolatin1encoding def
    currentdict end
definefont pop
/Courier-Oblique-latin1
    /Courier-Oblique findfont
    dup length dict begin
	{1 index /FID ne {def} {pop pop} ifelse} forall
	/Encoding isolatin1encoding def
    currentdict end
definefont pop
/Courier-Bold-latin1
    /Courier-Bold findfont
    dup length dict begin
	{1 index /FID ne {def} {pop pop} ifelse} forall
	/Encoding isolatin1encoding def
    currentdict end
definefont pop
/Courier-BoldOblique-latin1
    /Courier-BoldOblique findfont
    dup length dict begin
	{1 index /FID ne {def} {pop pop} ifelse} forall
	/Encoding isolatin1encoding def
    currentdict end
definefont pop
/Helvetica-latin1
    /Helvetica findfont
    dup length dict begin
	{1 index /FID ne {def} {pop pop} ifelse} forall
	/Encoding isolatin1encoding def
    currentdict end
definefont pop
/Helvetica-Oblique-latin1
    /Helvetica-Oblique findfont
    dup length dict begin
	{1 index /FID ne {def} {pop pop} ifelse} forall
	/Encoding isolatin1encoding def
    currentdict end
definefont pop
/Helvetica-Bold-latin1
    /Helvetica-Bold findfont
    dup length dict begin
	{1 index /FID ne {def} {pop pop} ifelse} forall
	/Encoding isolatin1encoding def
    currentdict end
definefont pop
/Helvetica-BoldOblique-latin1
    /Helvetica-BoldOblique findfont
    dup length dict begin
	{1 index /FID ne {def} {pop pop} ifelse} forall
	/Encoding isolatin1encoding def
    currentdict end
definefont pop
/Helvetica-Narrow-latin1
    /Helvetica-Narrow findfont
    dup length dict begin
	{1 index /FID ne {def} {pop pop} ifelse} forall
	/Encoding isolatin1encoding def
    currentdict end
definefont pop
/Helvetica-Narrow-Oblique-latin1
    /Helvetica-Narrow-Oblique findfont
    dup length dict begin
	{1 index /FID ne {def} {pop pop} ifelse} forall
	/Encoding isolatin1encoding def
    currentdict end
definefont pop
/Helvetica-Narrow-Bold-latin1
    /Helvetica-Narrow-Bold findfont
    dup length dict begin
	{1 index /FID ne {def} {pop pop} ifelse} forall
	/Encoding isolatin1encoding def
    currentdict end
definefont pop
/Helvetica-Narrow-BoldOblique-latin1
    /Helvetica-Narrow-BoldOblique findfont
    dup length dict begin
	{1 index /FID ne {def} {pop pop} ifelse} forall
	/Encoding isolatin1encoding def
    currentdict end
definefont pop
/NewCenturySchlbk-Roman-latin1
    /NewCenturySchlbk-Roman findfont
    dup length dict begin
	{1 index /FID ne {def} {pop pop} ifelse} forall
	/Encoding isolatin1encoding def
    currentdict end
definefont pop
/NewCenturySchlbk-Italic-latin1
    /NewCenturySchlbk-Italic findfont
    dup length dict begin
	{1 index /FID ne {def} {pop pop} ifelse} forall
	/Encoding isolatin1encoding def
    currentdict end
definefont pop
/NewCenturySchlbk-Bold-latin1
    /NewCenturySchlbk-Bold findfont
    dup length dict begin
	{1 index /FID ne {def} {pop pop} ifelse} forall
	/Encoding isolatin1encoding def
    currentdict end
definefont pop
/NewCenturySchlbk-BoldItalic-latin1
    /NewCenturySchlbk-BoldItalic findfont
    dup length dict begin
	{1 index /FID ne {def} {pop pop} ifelse} forall
	/Encoding isolatin1encoding def
    currentdict end
definefont pop
/Palatino-Roman-latin1
    /Palatino-Roman findfont
    dup length dict begin
	{1 index /FID ne {def} {pop pop} ifelse} forall
	/Encoding isolatin1encoding def
    currentdict end
definefont pop
/Palatino-Italic-latin1
    /Palatino-Italic findfont
    dup length dict begin
	{1 index /FID ne {def} {pop pop} ifelse} forall
	/Encoding isolatin1encoding def
    currentdict end
definefont pop
/Palatino-Bold-latin1
    /Palatino-Bold findfont
    dup length dict begin
	{1 index /FID ne {def} {pop pop} ifelse} forall
	/Encoding isolatin1encoding def
    currentdict end
definefont pop
/Palatino-BoldItalic-latin1
    /Palatino-BoldItalic findfont
    dup length dict begin
	{1 index /FID ne {def} {pop pop} ifelse} forall
	/Encoding isolatin1encoding def
    currentdict end
definefont pop
/Symbol-latin1
    /Symbol findfont
definefont pop
/ZapfChancery-MediumItalic-latin1
    /ZapfChancery-MediumItalic findfont
    dup length dict begin
	{1 index /FID ne {def} {pop pop} ifelse} forall
	/Encoding isolatin1encoding def
    currentdict end
definefont pop
/ZapfDingbats-latin1
    /ZapfDingbats findfont
    dup length dict begin
	{1 index /FID ne {def} {pop pop} ifelse} forall
	/Encoding isolatin1encoding def
    currentdict end
definefont pop
28.346000 -28.346000 scale
-5.269060 -32.554800 translate
%%EndProlog


0.100000 slw
[] 0 sd
1.000000 1.000000 1.000000 srgb
n 10.650000 16.800000 m 10.650000 18.600000 l 13.077500 18.600000 l 13.077500 16.800000 l f
n 10.650000 17.700000 m 10.650000 17.700000 0.900000 0.900000 180.000000 270.000000 ellipse f
n 13.077500 17.700000 m 13.077500 17.700000 0.900000 0.900000 270.000000 360.000000 ellipse f
n 9.750000 17.700000 m 9.750000 17.700000 l 13.977500 17.700000 l 13.977500 17.700000 l f
n 10.650000 17.700000 m 10.650000 17.700000 0.900000 0.900000 90.000000 180.000000 ellipse f
n 13.077500 17.700000 m 13.077500 17.700000 0.900000 0.900000 0.000000 90.000000 ellipse f
0.000000 0.000000 0.000000 srgb
n 10.650000 16.800000 m 13.077500 16.800000 l s
n 10.650000 18.600000 m 13.077500 18.600000 l s
n 10.650000 17.700000 0.900000 0.900000 180.000000 270.000000 ellipse s
n 13.077500 17.700000 0.900000 0.900000 270.000000 360.000000 ellipse s
n 9.750000 17.700000 m 9.750000 17.700000 l s
n 13.977500 17.700000 m 13.977500 17.700000 l s
n 10.650000 17.700000 0.900000 0.900000 90.000000 180.000000 ellipse s
n 13.077500 17.700000 0.900000 0.900000 0.000000 90.000000 ellipse s
/Helvetica-latin1 ff 0.560000 scf sf
(University) dup sw 2 div 11.863750 ex sub 17.735000 m
 gs 1 -1 sc sh gr
0.100000 slw
[] 0 sd
1.000000 1.000000 1.000000 srgb
n 24.169600 16.805000 m 24.169600 18.605000 l 26.369600 18.605000 l 26.369600 16.805000 l f
n 24.169600 17.705000 m 24.169600 17.705000 0.900000 0.900000 180.000000 270.000000 ellipse f
n 26.369600 17.705000 m 26.369600 17.705000 0.900000 0.900000 270.000000 360.000000 ellipse f
n 23.269600 17.705000 m 23.269600 17.705000 l 27.269600 17.705000 l 27.269600 17.705000 l f
n 24.169600 17.705000 m 24.169600 17.705000 0.900000 0.900000 90.000000 180.000000 ellipse f
n 26.369600 17.705000 m 26.369600 17.705000 0.900000 0.900000 0.000000 90.000000 ellipse f
0.000000 0.000000 0.000000 srgb
n 24.169600 16.805000 m 26.369600 16.805000 l s
n 24.169600 18.605000 m 26.369600 18.605000 l s
n 24.169600 17.705000 0.900000 0.900000 180.000000 270.000000 ellipse s
n 26.369600 17.705000 0.900000 0.900000 270.000000 360.000000 ellipse s
n 23.269600 17.705000 m 23.269600 17.705000 l s
n 27.269600 17.705000 m 27.269600 17.705000 l s
n 24.169600 17.705000 0.900000 0.900000 90.000000 180.000000 ellipse s
n 26.369600 17.705000 0.900000 0.900000 0.000000 90.000000 ellipse s
/Helvetica-latin1 ff 0.560000 scf sf
(Person) dup sw 2 div 25.269600 ex sub 17.740000 m
 gs 1 -1 sc sh gr
0.100000 slw
[] 0 sd
1.000000 1.000000 1.000000 srgb
n 47.770600 20.627800 m 47.770600 22.427800 l 49.970600 22.427800 l 49.970600 20.627800 l f
n 47.770600 21.527800 m 47.770600 21.527800 0.900000 0.900000 180.000000 270.000000 ellipse f
n 49.970600 21.527800 m 49.970600 21.527800 0.900000 0.900000 270.000000 360.000000 ellipse f
n 46.870600 21.527800 m 46.870600 21.527800 l 50.870600 21.527800 l 50.870600 21.527800 l f
n 47.770600 21.527800 m 47.770600 21.527800 0.900000 0.900000 90.000000 180.000000 ellipse f
n 49.970600 21.527800 m 49.970600 21.527800 0.900000 0.900000 0.000000 90.000000 ellipse f
0.000000 0.000000 0.000000 srgb
n 47.770600 20.627800 m 49.970600 20.627800 l s
n 47.770600 22.427800 m 49.970600 22.427800 l s
n 47.770600 21.527800 0.900000 0.900000 180.000000 270.000000 ellipse s
n 49.970600 21.527800 0.900000 0.900000 270.000000 360.000000 ellipse s
n 46.870600 21.527800 m 46.870600 21.527800 l s
n 50.870600 21.527800 m 50.870600 21.527800 l s
n 47.770600 21.527800 0.900000 0.900000 90.000000 180.000000 ellipse s
n 49.970600 21.527800 0.900000 0.900000 0.000000 90.000000 ellipse s
/Helvetica-latin1 ff 0.560000 scf sf
(Actor) dup sw 2 div 48.870600 ex sub 21.562800 m
 gs 1 -1 sc sh gr
0.100000 slw
[] 0 sd
1.000000 1.000000 1.000000 srgb
n 47.852400 12.277800 m 47.852400 14.077800 l 50.052400 14.077800 l 50.052400 12.277800 l f
n 47.852400 13.177800 m 47.852400 13.177800 0.900000 0.900000 180.000000 270.000000 ellipse f
n 50.052400 13.177800 m 50.052400 13.177800 0.900000 0.900000 270.000000 360.000000 ellipse f
n 46.952400 13.177800 m 46.952400 13.177800 l 50.952400 13.177800 l 50.952400 13.177800 l f
n 47.852400 13.177800 m 47.852400 13.177800 0.900000 0.900000 90.000000 180.000000 ellipse f
n 50.052400 13.177800 m 50.052400 13.177800 0.900000 0.900000 0.000000 90.000000 ellipse f
0.000000 0.000000 0.000000 srgb
n 47.852400 12.277800 m 50.052400 12.277800 l s
n 47.852400 14.077800 m 50.052400 14.077800 l s
n 47.852400 13.177800 0.900000 0.900000 180.000000 270.000000 ellipse s
n 50.052400 13.177800 0.900000 0.900000 270.000000 360.000000 ellipse s
n 46.952400 13.177800 m 46.952400 13.177800 l s
n 50.952400 13.177800 m 50.952400 13.177800 l s
n 47.852400 13.177800 0.900000 0.900000 90.000000 180.000000 ellipse s
n 50.052400 13.177800 0.900000 0.900000 0.000000 90.000000 ellipse s
/Helvetica-latin1 ff 0.560000 scf sf
(Director) dup sw 2 div 48.952400 ex sub 13.212800 m
 gs 1 -1 sc sh gr
0.100000 slw
[] 0 sd
1.000000 1.000000 1.000000 srgb
n 47.870600 16.861900 m 47.870600 18.661900 l 50.070600 18.661900 l 50.070600 16.861900 l f
n 47.870600 17.761900 m 47.870600 17.761900 0.900000 0.900000 180.000000 270.000000 ellipse f
n 50.070600 17.761900 m 50.070600 17.761900 0.900000 0.900000 270.000000 360.000000 ellipse f
n 46.970600 17.761900 m 46.970600 17.761900 l 50.970600 17.761900 l 50.970600 17.761900 l f
n 47.870600 17.761900 m 47.870600 17.761900 0.900000 0.900000 90.000000 180.000000 ellipse f
n 50.070600 17.761900 m 50.070600 17.761900 0.900000 0.900000 0.000000 90.000000 ellipse f
0.000000 0.000000 0.000000 srgb
n 47.870600 16.861900 m 50.070600 16.861900 l s
n 47.870600 18.661900 m 50.070600 18.661900 l s
n 47.870600 17.761900 0.900000 0.900000 180.000000 270.000000 ellipse s
n 50.070600 17.761900 0.900000 0.900000 270.000000 360.000000 ellipse s
n 46.970600 17.761900 m 46.970600 17.761900 l s
n 50.970600 17.761900 m 50.970600 17.761900 l s
n 47.870600 17.761900 0.900000 0.900000 90.000000 180.000000 ellipse s
n 50.070600 17.761900 0.900000 0.900000 0.000000 90.000000 ellipse s
/Helvetica-latin1 ff 0.560000 scf sf
(Producer) dup sw 2 div 48.970600 ex sub 17.796900 m
 gs 1 -1 sc sh gr
0.100000 slw
[] 0 sd
1.000000 1.000000 1.000000 srgb
n 36.428600 16.819900 m 36.428600 18.619900 l 38.853600 18.619900 l 38.853600 16.819900 l f
n 36.428600 17.719900 m 36.428600 17.719900 0.900000 0.900000 180.000000 270.000000 ellipse f
n 38.853600 17.719900 m 38.853600 17.719900 0.900000 0.900000 270.000000 360.000000 ellipse f
n 35.528600 17.719900 m 35.528600 17.719900 l 39.753600 17.719900 l 39.753600 17.719900 l f
n 36.428600 17.719900 m 36.428600 17.719900 0.900000 0.900000 90.000000 180.000000 ellipse f
n 38.853600 17.719900 m 38.853600 17.719900 0.900000 0.900000 0.000000 90.000000 ellipse f
0.000000 0.000000 0.000000 srgb
n 36.428600 16.819900 m 38.853600 16.819900 l s
n 36.428600 18.619900 m 38.853600 18.619900 l s
n 36.428600 17.719900 0.900000 0.900000 180.000000 270.000000 ellipse s
n 38.853600 17.719900 0.900000 0.900000 270.000000 360.000000 ellipse s
n 35.528600 17.719900 m 35.528600 17.719900 l s
n 39.753600 17.719900 m 39.753600 17.719900 l s
n 36.428600 17.719900 0.900000 0.900000 90.000000 180.000000 ellipse s
n 38.853600 17.719900 0.900000 0.900000 0.000000 90.000000 ellipse s
/Helvetica-latin1 ff 0.560000 scf sf
(#BLANK#) dup sw 2 div 37.641100 ex sub 17.754900 m
 gs 1 -1 sc sh gr
0.100000 slw
[] 0 sd
1.000000 1.000000 1.000000 srgb
n 36.536500 24.427800 m 36.536500 26.227800 l 38.736500 26.227800 l 38.736500 24.427800 l f
n 36.536500 25.327800 m 36.536500 25.327800 0.900000 0.900000 180.000000 270.000000 ellipse f
n 38.736500 25.327800 m 38.736500 25.327800 0.900000 0.900000 270.000000 360.000000 ellipse f
n 35.636500 25.327800 m 35.636500 25.327800 l 39.636500 25.327800 l 39.636500 25.327800 l f
n 36.536500 25.327800 m 36.536500 25.327800 0.900000 0.900000 90.000000 180.000000 ellipse f
n 38.736500 25.327800 m 38.736500 25.327800 0.900000 0.900000 0.000000 90.000000 ellipse f
0.000000 0.000000 0.000000 srgb
n 36.536500 24.427800 m 38.736500 24.427800 l s
n 36.536500 26.227800 m 38.736500 26.227800 l s
n 36.536500 25.327800 0.900000 0.900000 180.000000 270.000000 ellipse s
n 38.736500 25.327800 0.900000 0.900000 270.000000 360.000000 ellipse s
n 35.636500 25.327800 m 35.636500 25.327800 l s
n 39.636500 25.327800 m 39.636500 25.327800 l s
n 36.536500 25.327800 0.900000 0.900000 90.000000 180.000000 ellipse s
n 38.736500 25.327800 0.900000 0.900000 0.000000 90.000000 ellipse s
/Helvetica-latin1 ff 0.560000 scf sf
(Movie) dup sw 2 div 37.636500 ex sub 25.362800 m
 gs 1 -1 sc sh gr
0.100000 slw
[] 0 sd
[] 0 sd
0 slj
0 slc
n 23.269600 17.705000 m 18.623550 17.705000 l 18.623550 17.700000 l 14.464303 17.700000 l s
[] 0 sd
0 slj
0 slc
n 14.089303 17.700000 m 14.589303 17.450000 l 14.464303 17.700000 l 14.589303 17.950000 l ef
n 14.089303 17.700000 m 14.589303 17.450000 l 14.464303 17.700000 l 14.589303 17.950000 l cp s
0.100000 slw
[] 0 sd
[] 0 sd
0 slj
0 slc
n 35.528600 17.719900 m 31.399100 17.719900 l 31.399100 17.705000 l 27.756403 17.705000 l s
[] 0 sd
0 slj
0 slc
n 27.381403 17.705000 m 27.881403 17.455000 l 27.756403 17.705000 l 27.881403 17.955000 l ef
n 27.381403 17.705000 m 27.881403 17.455000 l 27.756403 17.705000 l 27.881403 17.955000 l cp s
0.100000 slw
[] 0 sd
[] 0 sd
0 slj
0 slc
n 37.641100 18.619900 m 37.641100 21.523850 l 37.636500 21.523850 l 37.636500 23.940997 l s
[] 0 sd
0 slj
0 slc
n 37.636500 24.315997 m 37.386500 23.815997 l 37.636500 23.940997 l 37.886500 23.815997 l ef
n 37.636500 24.315997 m 37.386500 23.815997 l 37.636500 23.940997 l 37.886500 23.815997 l cp s
0.100000 slw
[] 0 sd
[] 0 sd
0 slj
0 slc
n 39.753600 17.719900 m 43.362100 17.719900 l 43.362100 17.761900 l 46.483797 17.761900 l s
[] 0 sd
0 slj
0 slc
n 46.858797 17.761900 m 46.358797 18.011900 l 46.483797 17.761900 l 46.358797 17.511900 l ef
n 46.858797 17.761900 m 46.358797 18.011900 l 46.483797 17.761900 l 46.358797 17.511900 l cp s
/Helvetica-latin1 ff 0.560000 scf sf
(almaMater) 17.493600 16.962300 m
 gs 1 -1 sc sh gr
0.100000 slw
[] 0 sd
[] 0 sd
0 slj
0 slc
n 39.753600 17.719900 m 42.142300 17.719900 l 42.142300 21.527800 l 46.383797 21.527800 l s
[] 0 sd
0 slj
0 slc
n 46.758797 21.527800 m 46.258797 21.777800 l 46.383797 21.527800 l 46.258797 21.277800 l ef
n 46.758797 21.527800 m 46.258797 21.777800 l 46.383797 21.527800 l 46.258797 21.277800 l cp s
0.100000 slw
[] 0 sd
[] 0 sd
0 slj
0 slc
n 39.753600 17.719900 m 41.974200 17.719900 l 41.974200 13.177800 l 46.465597 13.177800 l s
[] 0 sd
0 slj
0 slc
n 46.840597 13.177800 m 46.340597 13.427800 l 46.465597 13.177800 l 46.340597 12.927800 l ef
n 46.840597 13.177800 m 46.340597 13.427800 l 46.465597 13.177800 l 46.340597 12.927800 l cp s
0.100000 slw
[] 0 sd
1.000000 1.000000 1.000000 srgb
n 10.772510 23.777500 m 10.772510 25.577500 l 12.972510 25.577500 l 12.972510 23.777500 l f
n 10.772510 24.677500 m 10.772510 24.677500 0.900000 0.900000 180.000000 270.000000 ellipse f
n 12.972510 24.677500 m 12.972510 24.677500 0.900000 0.900000 270.000000 360.000000 ellipse f
n 9.872510 24.677500 m 9.872510 24.677500 l 13.872510 24.677500 l 13.872510 24.677500 l f
n 10.772510 24.677500 m 10.772510 24.677500 0.900000 0.900000 90.000000 180.000000 ellipse f
n 12.972510 24.677500 m 12.972510 24.677500 0.900000 0.900000 0.000000 90.000000 ellipse f
0.000000 0.000000 0.000000 srgb
n 10.772510 23.777500 m 12.972510 23.777500 l s
n 10.772510 25.577500 m 12.972510 25.577500 l s
n 10.772510 24.677500 0.900000 0.900000 180.000000 270.000000 ellipse s
n 12.972510 24.677500 0.900000 0.900000 270.000000 360.000000 ellipse s
n 9.872510 24.677500 m 9.872510 24.677500 l s
n 13.872510 24.677500 m 13.872510 24.677500 l s
n 10.772510 24.677500 0.900000 0.900000 90.000000 180.000000 ellipse s
n 12.972510 24.677500 0.900000 0.900000 0.000000 90.000000 ellipse s
/Helvetica-latin1 ff 0.560000 scf sf
(Rank) dup sw 2 div 11.872510 ex sub 24.712500 m
 gs 1 -1 sc sh gr
0.100000 slw
[] 0 sd
[] 0 sd
0 slj
0 slc
n 11.872510 23.777500 m 11.872510 21.188750 l 11.863750 21.188750 l 11.863750 19.086803 l s
[] 0 sd
0 slj
0 slc
n 11.863750 18.711803 m 12.113750 19.211803 l 11.863750 19.086803 l 11.613750 19.211803 l ef
n 11.863750 18.711803 m 12.113750 19.211803 l 11.863750 19.086803 l 11.613750 19.211803 l cp s
0.100000 slw
[] 0 sd
1.000000 1.000000 1.000000 srgb
n 23.890500 8.557290 m 23.890500 10.357290 l 26.090500 10.357290 l 26.090500 8.557290 l f
n 23.890500 9.457290 m 23.890500 9.457290 0.900000 0.900000 180.000000 270.000000 ellipse f
n 26.090500 9.457290 m 26.090500 9.457290 0.900000 0.900000 270.000000 360.000000 ellipse f
n 22.990500 9.457290 m 22.990500 9.457290 l 26.990500 9.457290 l 26.990500 9.457290 l f
n 23.890500 9.457290 m 23.890500 9.457290 0.900000 0.900000 90.000000 180.000000 ellipse f
n 26.090500 9.457290 m 26.090500 9.457290 0.900000 0.900000 0.000000 90.000000 ellipse f
0.000000 0.000000 0.000000 srgb
n 23.890500 8.557290 m 26.090500 8.557290 l s
n 23.890500 10.357290 m 26.090500 10.357290 l s
n 23.890500 9.457290 0.900000 0.900000 180.000000 270.000000 ellipse s
n 26.090500 9.457290 0.900000 0.900000 270.000000 360.000000 ellipse s
n 22.990500 9.457290 m 22.990500 9.457290 l s
n 26.990500 9.457290 m 26.990500 9.457290 l s
n 23.890500 9.457290 0.900000 0.900000 90.000000 180.000000 ellipse s
n 26.090500 9.457290 0.900000 0.900000 0.000000 90.000000 ellipse s
/Helvetica-latin1 ff 0.560000 scf sf
(City) dup sw 2 div 24.990500 ex sub 9.492290 m
 gs 1 -1 sc sh gr
0.100000 slw
[] 0 sd
[] 0 sd
0 slj
0 slc
n 11.863750 16.800000 m 11.863750 9.457290 l 22.503697 9.457290 l s
[] 0 sd
0 slj
0 slc
n 22.878697 9.457290 m 22.378697 9.707290 l 22.503697 9.457290 l 22.378697 9.207290 l ef
n 22.878697 9.457290 m 22.378697 9.707290 l 22.503697 9.457290 l 22.378697 9.207290 l cp s
/Helvetica-latin1 ff 0.560000 scf sf
(locatedIn) 13.257600 8.721480 m
 gs 1 -1 sc sh gr
/Helvetica-latin1 ff 0.560000 scf sf
(ranksUniversity) 12.374600 20.998600 m
 gs 1 -1 sc sh gr
0.100000 slw
[] 0 sd
[] 0 sd
0 slj
0 slc
n 9.750000 17.700000 m 8.654330 17.700000 l 8.654330 30.353500 l 9.217527 30.353500 l s
[] 0 sd
0 slj
0 slc
n 9.592527 30.353500 m 9.092527 30.603500 l 9.217527 30.353500 l 9.092527 30.103500 l ef
n 9.592527 30.353500 m 9.092527 30.603500 l 9.217527 30.353500 l 9.092527 30.103500 l cp s
/Helvetica-latin1 ff 0.560000 scf sf
(rankedBy) 5.269060 20.998600 m
 gs 1 -1 sc sh gr
0.100000 slw
[] 0 sd
1.000000 1.000000 1.000000 srgb
n 10.604330 29.453500 m 10.604330 31.253500 l 13.169330 31.253500 l 13.169330 29.453500 l f
n 10.604330 30.353500 m 10.604330 30.353500 0.900000 0.900000 180.000000 270.000000 ellipse f
n 13.169330 30.353500 m 13.169330 30.353500 0.900000 0.900000 270.000000 360.000000 ellipse f
n 9.704330 30.353500 m 9.704330 30.353500 l 14.069330 30.353500 l 14.069330 30.353500 l f
n 10.604330 30.353500 m 10.604330 30.353500 0.900000 0.900000 90.000000 180.000000 ellipse f
n 13.169330 30.353500 m 13.169330 30.353500 0.900000 0.900000 0.000000 90.000000 ellipse f
0.000000 0.000000 0.000000 srgb
n 10.604330 29.453500 m 13.169330 29.453500 l s
n 10.604330 31.253500 m 13.169330 31.253500 l s
n 10.604330 30.353500 0.900000 0.900000 180.000000 270.000000 ellipse s
n 13.169330 30.353500 0.900000 0.900000 270.000000 360.000000 ellipse s
n 9.704330 30.353500 m 9.704330 30.353500 l s
n 14.069330 30.353500 m 14.069330 30.353500 l s
n 10.604330 30.353500 0.900000 0.900000 90.000000 180.000000 ellipse s
n 13.169330 30.353500 0.900000 0.900000 0.000000 90.000000 ellipse s
/Helvetica-latin1 ff 0.560000 scf sf
(RankIndex) dup sw 2 div 11.886830 ex sub 30.388500 m
 gs 1 -1 sc sh gr
0.100000 slw
[] 0 sd
[] 0 sd
0 slj
0 slc
n 11.872510 25.577500 m 11.872510 27.515500 l 11.886830 27.515500 l 11.886830 28.966697 l s
[] 0 sd
0 slj
0 slc
n 11.886830 29.341697 m 11.636830 28.841697 l 11.886830 28.966697 l 12.136830 28.841697 l ef
n 11.886830 29.341697 m 11.636830 28.841697 l 11.886830 28.966697 l 12.136830 28.841697 l cp s
/Helvetica-latin1 ff 0.560000 scf sf
(partOfRankIndex) 12.626900 27.389400 m
 gs 1 -1 sc sh gr
/Helvetica-latin1 ff 0.560000 scf sf
(aboutPerson) 30.906200 17.267200 m
 gs 1 -1 sc sh gr
/Helvetica-latin1 ff 0.560000 scf sf
(aboutMovie) 33.649300 21.461100 m
 gs 1 -1 sc sh gr
/Helvetica-latin1 ff 0.560000 scf sf
(withRole) 42.310500 12.757800 m
 gs 1 -1 sc sh gr
/Helvetica-latin1 ff 0.560000 scf sf
(withRole) 42.659500 17.014900 m
 gs 1 -1 sc sh gr
/Helvetica-latin1 ff 0.560000 scf sf
(withRole) 42.209600 22.316700 m
 gs 1 -1 sc sh gr
0.100000 slw
[] 0 sd
1.000000 1.000000 1.000000 srgb
n 56.937700 16.840100 m 56.937700 18.640100 l 59.357700 18.640100 l 59.357700 16.840100 l f
n 56.937700 17.740100 m 56.937700 17.740100 0.900000 0.900000 180.000000 270.000000 ellipse f
n 59.357700 17.740100 m 59.357700 17.740100 0.900000 0.900000 270.000000 360.000000 ellipse f
n 56.037700 17.740100 m 56.037700 17.740100 l 60.257700 17.740100 l 60.257700 17.740100 l f
n 56.937700 17.740100 m 56.937700 17.740100 0.900000 0.900000 90.000000 180.000000 ellipse f
n 59.357700 17.740100 m 59.357700 17.740100 0.900000 0.900000 0.000000 90.000000 ellipse f
0.000000 0.000000 0.000000 srgb
n 56.937700 16.840100 m 59.357700 16.840100 l s
n 56.937700 18.640100 m 59.357700 18.640100 l s
n 56.937700 17.740100 0.900000 0.900000 180.000000 270.000000 ellipse s
n 59.357700 17.740100 0.900000 0.900000 270.000000 360.000000 ellipse s
n 56.037700 17.740100 m 56.037700 17.740100 l s
n 60.257700 17.740100 m 60.257700 17.740100 l s
n 56.937700 17.740100 0.900000 0.900000 90.000000 180.000000 ellipse s
n 59.357700 17.740100 0.900000 0.900000 0.000000 90.000000 ellipse s
/Helvetica-latin1 ff 0.560000 scf sf
(MovieJobs) dup sw 2 div 58.147700 ex sub 17.775100 m
 gs 1 -1 sc sh gr
0.100000 slw
[] 0 sd
[] 0 sd
0 slj
0 slc
n 50.952400 13.177800 m 58.147700 13.177800 l 58.147700 16.353297 l s
[] 0 sd
0 slj
0 slc
n 58.147700 16.728297 m 57.897700 16.228297 l 58.147700 16.353297 l 58.397700 16.228297 l ef
n 58.147700 16.728297 m 57.897700 16.228297 l 58.147700 16.353297 l 58.397700 16.228297 l cp s
0.100000 slw
[] 0 sd
[] 0 sd
0 slj
0 slc
n 50.970600 17.761900 m 53.504150 17.761900 l 53.504150 17.740100 l 55.550897 17.740100 l s
[] 0 sd
0 slj
0 slc
n 55.925897 17.740100 m 55.425897 17.990100 l 55.550897 17.740100 l 55.425897 17.490100 l ef
n 55.925897 17.740100 m 55.425897 17.990100 l 55.550897 17.740100 l 55.425897 17.490100 l cp s
0.100000 slw
[] 0 sd
[] 0 sd
0 slj
0 slc
n 50.870600 21.527800 m 58.147700 21.527800 l 58.147700 19.126903 l s
[] 0 sd
0 slj
0 slc
n 58.147700 18.751903 m 58.397700 19.251903 l 58.147700 19.126903 l 57.897700 19.251903 l ef
n 58.147700 18.751903 m 58.397700 19.251903 l 58.147700 19.126903 l 57.897700 19.251903 l cp s
/Helvetica-latin1 ff 0.560000 scf sf
(subClassOf) 52.317200 13.766900 m
 gs 1 -1 sc sh gr
/Helvetica-latin1 ff 0.560000 scf sf
(subClassOf) 51.951400 17.351200 m
 gs 1 -1 sc sh gr
/Helvetica-latin1 ff 0.560000 scf sf
(subClassOf) 52.846900 20.971300 m
 gs 1 -1 sc sh gr
0.100000 slw
[] 0 sd
1.000000 1.000000 1.000000 srgb
n 34.228100 3.385590 m 34.228100 5.185590 l 40.843100 5.185590 l 40.843100 3.385590 l f
n 34.228100 4.285590 m 34.228100 4.285590 0.900000 0.900000 180.000000 270.000000 ellipse f
n 40.843100 4.285590 m 40.843100 4.285590 0.900000 0.900000 270.000000 360.000000 ellipse f
n 33.328100 4.285590 m 33.328100 4.285590 l 41.743100 4.285590 l 41.743100 4.285590 l f
n 34.228100 4.285590 m 34.228100 4.285590 0.900000 0.900000 90.000000 180.000000 ellipse f
n 40.843100 4.285590 m 40.843100 4.285590 0.900000 0.900000 0.000000 90.000000 ellipse f
0.000000 0.000000 0.000000 srgb
n 34.228100 3.385590 m 40.843100 3.385590 l s
n 34.228100 5.185590 m 40.843100 5.185590 l s
n 34.228100 4.285590 0.900000 0.900000 180.000000 270.000000 ellipse s
n 40.843100 4.285590 0.900000 0.900000 270.000000 360.000000 ellipse s
n 33.328100 4.285590 m 33.328100 4.285590 l s
n 41.743100 4.285590 m 41.743100 4.285590 l s
n 34.228100 4.285590 0.900000 0.900000 90.000000 180.000000 ellipse s
n 40.843100 4.285590 0.900000 0.900000 0.000000 90.000000 ellipse s
/Helvetica-latin1 ff 0.560000 scf sf
(MoviePersonStatement) dup sw 2 div 37.535600 ex sub 4.320590 m
 gs 1 -1 sc sh gr
0.100000 slw
[] 0 sd
[] 0 sd
0 slj
0 slc
n 37.546200 16.710400 m 37.546200 10.947995 l 37.535600 10.947995 l 37.535600 5.672393 l s
[] 0 sd
0 slj
0 slc
n 37.535600 5.297393 m 37.785600 5.797393 l 37.535600 5.672393 l 37.285600 5.797393 l ef
n 37.535600 5.297393 m 37.785600 5.797393 l 37.535600 5.672393 l 37.285600 5.797393 l cp s
/Helvetica-latin1 ff 0.560000 scf sf
(a) 37.970300 10.034600 m
 gs 1 -1 sc sh gr
/Helvetica-latin1 ff 0.560000 scf sf
(heeft ook label) 12.215400 32.242300 m
 gs 1 -1 sc sh gr
0.100000 slw
[] 0 sd
1.000000 1.000000 1.000000 srgb
n 18.420500 23.781300 m 18.420500 25.581300 l 20.690500 25.581300 l 20.690500 23.781300 l f
n 18.420500 24.681300 m 18.420500 24.681300 0.900000 0.900000 180.000000 270.000000 ellipse f
n 20.690500 24.681300 m 20.690500 24.681300 0.900000 0.900000 270.000000 360.000000 ellipse f
n 17.520500 24.681300 m 17.520500 24.681300 l 21.590500 24.681300 l 21.590500 24.681300 l f
n 18.420500 24.681300 m 18.420500 24.681300 0.900000 0.900000 90.000000 180.000000 ellipse f
n 20.690500 24.681300 m 20.690500 24.681300 0.900000 0.900000 0.000000 90.000000 ellipse f
0.000000 0.000000 0.000000 srgb
n 18.420500 23.781300 m 20.690500 23.781300 l s
n 18.420500 25.581300 m 20.690500 25.581300 l s
n 18.420500 24.681300 0.900000 0.900000 180.000000 270.000000 ellipse s
n 20.690500 24.681300 0.900000 0.900000 270.000000 360.000000 ellipse s
n 17.520500 24.681300 m 17.520500 24.681300 l s
n 21.590500 24.681300 m 21.590500 24.681300 l s
n 18.420500 24.681300 0.900000 0.900000 90.000000 180.000000 ellipse s
n 20.690500 24.681300 0.900000 0.900000 0.000000 90.000000 ellipse s
/Helvetica-latin1 ff 0.560000 scf sf
(RankType) dup sw 2 div 19.555500 ex sub 24.716300 m
 gs 1 -1 sc sh gr
0.100000 slw
[] 0 sd
[] 0 sd
0 slj
0 slc
n 13.872510 24.677500 m 15.696505 24.677500 l 15.696505 24.681300 l 17.033697 24.681300 l s
[] 0 sd
0 slj
0 slc
n 17.408697 24.681300 m 16.908697 24.931300 l 17.033697 24.681300 l 16.908697 24.431300 l ef
n 17.408697 24.681300 m 16.908697 24.931300 l 17.033697 24.681300 l 16.908697 24.431300 l cp s
/Helvetica-latin1 ff 0.560000 scf sf
(propertType) 17.998700 23.181900 m
 gs 1 -1 sc sh gr
0.100000 slw
[] 0 sd
1.000000 1.000000 1.000000 srgb
n 36.078700 28.600700 m 36.078700 30.400700 l 39.138700 30.400700 l 39.138700 28.600700 l f
n 36.078700 29.500700 m 36.078700 29.500700 0.900000 0.900000 180.000000 270.000000 ellipse f
n 39.138700 29.500700 m 39.138700 29.500700 0.900000 0.900000 270.000000 360.000000 ellipse f
n 35.178700 29.500700 m 35.178700 29.500700 l 40.038700 29.500700 l 40.038700 29.500700 l f
n 36.078700 29.500700 m 36.078700 29.500700 0.900000 0.900000 90.000000 180.000000 ellipse f
n 39.138700 29.500700 m 39.138700 29.500700 0.900000 0.900000 0.000000 90.000000 ellipse f
0.000000 0.000000 0.000000 srgb
n 36.078700 28.600700 m 39.138700 28.600700 l s
n 36.078700 30.400700 m 39.138700 30.400700 l s
n 36.078700 29.500700 0.900000 0.900000 180.000000 270.000000 ellipse s
n 39.138700 29.500700 0.900000 0.900000 270.000000 360.000000 ellipse s
n 35.178700 29.500700 m 35.178700 29.500700 l s
n 40.038700 29.500700 m 40.038700 29.500700 l s
n 36.078700 29.500700 0.900000 0.900000 90.000000 180.000000 ellipse s
n 39.138700 29.500700 0.900000 0.900000 0.000000 90.000000 ellipse s
/Helvetica-latin1 ff 0.560000 scf sf
(MovieTrailer) dup sw 2 div 37.608700 ex sub 29.535700 m
 gs 1 -1 sc sh gr
0.100000 slw
[] 0 sd
[] 0 sd
0 slj
0 slc
n 37.636500 26.227800 m 37.636500 27.414250 l 37.608700 27.414250 l 37.608700 28.113897 l s
[] 0 sd
0 slj
0 slc
n 37.608700 28.488897 m 37.358700 27.988897 l 37.608700 28.113897 l 37.858700 27.988897 l ef
n 37.608700 28.488897 m 37.358700 27.988897 l 37.608700 28.113897 l 37.858700 27.988897 l cp s
0.100000 slw
[] 0 sd
[] 0 sd
0 slj
0 slc
n 40.038700 29.500700 m 43.033500 29.500700 l 43.033500 29.510700 l 45.541497 29.510700 l s
[] 0 sd
0 slj
0 slc
n 45.916497 29.510700 m 45.416497 29.760700 l 45.541497 29.510700 l 45.416497 29.260700 l ef
n 45.916497 29.510700 m 45.416497 29.760700 l 45.541497 29.510700 l 45.416497 29.260700 l cp s
/Helvetica-latin1 ff 0.560000 scf sf
(<.....>) 46.838000 29.466400 m
 gs 1 -1 sc sh gr
/Helvetica-latin1 ff 0.560000 scf sf
(youtubeVideo) 41.016100 28.810900 m
 gs 1 -1 sc sh gr
/Helvetica-latin1 ff 0.560000 scf sf
(label) 40.437800 25.032500 m
 gs 1 -1 sc sh gr
showpage
