%!PS-Adobe-2.0 EPSF-2.0
%%Title: /home/maarten/vu/semweb/final/diagrams/used_sources.dia
%%Creator: Dia v0.97.2
%%CreationDate: Fri Oct  5 09:25:43 2012
%%For: maarten
%%Orientation: Portrait
%%Magnification: 1.0000
%%BoundingBox: 0 0 675 549
%%BeginSetup
%%EndSetup
%%EndComments
%%BeginProlog
[ /.notdef /.notdef /.notdef /.notdef /.notdef /.notdef /.notdef /.notdef /.notdef /.notdef
/.notdef /.notdef /.notdef /.notdef /.notdef /.notdef /.notdef /.notdef /.notdef /.notdef
/.notdef /.notdef /.notdef /.notdef /.notdef /.notdef /.notdef /.notdef /.notdef /.notdef
/.notdef /.notdef /space /exclam /quotedbl /numbersign /dollar /percent /ampersand /quoteright
/parenleft /parenright /asterisk /plus /comma /hyphen /period /slash /zero /one
/two /three /four /five /six /seven /eight /nine /colon /semicolon
/less /equal /greater /question /at /A /B /C /D /E
/F /G /H /I /J /K /L /M /N /O
/P /Q /R /S /T /U /V /W /X /Y
/Z /bracketleft /backslash /bracketright /asciicircum /underscore /quoteleft /a /b /c
/d /e /f /g /h /i /j /k /l /m
/n /o /p /q /r /s /t /u /v /w
/x /y /z /braceleft /bar /braceright /asciitilde /.notdef /.notdef /.notdef
/.notdef /.notdef /.notdef /.notdef /.notdef /.notdef /.notdef /.notdef /.notdef /.notdef
/.notdef /.notdef /.notdef /.notdef /.notdef /.notdef /.notdef /.notdef /.notdef /.notdef
/.notdef /.notdef /.notdef /.notdef /.notdef /.notdef /.notdef /.notdef /.notdef /.notdef
/space /exclamdown /cent /sterling /currency /yen /brokenbar /section /dieresis /copyright
/ordfeminine /guillemotleft /logicalnot /hyphen /registered /macron /degree /plusminus /twosuperior /threesuperior
/acute /mu /paragraph /periodcentered /cedilla /onesuperior /ordmasculine /guillemotright /onequarter /onehalf
/threequarters /questiondown /Agrave /Aacute /Acircumflex /Atilde /Adieresis /Aring /AE /Ccedilla
/Egrave /Eacute /Ecircumflex /Edieresis /Igrave /Iacute /Icircumflex /Idieresis /Eth /Ntilde
/Ograve /Oacute /Ocircumflex /Otilde /Odieresis /multiply /Oslash /Ugrave /Uacute /Ucircumflex
/Udieresis /Yacute /Thorn /germandbls /agrave /aacute /acircumflex /atilde /adieresis /aring
/ae /ccedilla /egrave /eacute /ecircumflex /edieresis /igrave /iacute /icircumflex /idieresis
/eth /ntilde /ograve /oacute /ocircumflex /otilde /odieresis /divide /oslash /ugrave
/uacute /ucircumflex /udieresis /yacute /thorn /ydieresis] /isolatin1encoding exch def
/cp {closepath} bind def
/c {curveto} bind def
/f {fill} bind def
/a {arc} bind def
/ef {eofill} bind def
/ex {exch} bind def
/gr {grestore} bind def
/gs {gsave} bind def
/sa {save} bind def
/rs {restore} bind def
/l {lineto} bind def
/m {moveto} bind def
/rm {rmoveto} bind def
/n {newpath} bind def
/s {stroke} bind def
/sh {show} bind def
/slc {setlinecap} bind def
/slj {setlinejoin} bind def
/slw {setlinewidth} bind def
/srgb {setrgbcolor} bind def
/rot {rotate} bind def
/sc {scale} bind def
/sd {setdash} bind def
/ff {findfont} bind def
/sf {setfont} bind def
/scf {scalefont} bind def
/sw {stringwidth pop} bind def
/tr {translate} bind def

/ellipsedict 8 dict def
ellipsedict /mtrx matrix put
/ellipse
{ ellipsedict begin
   /endangle exch def
   /startangle exch def
   /yrad exch def
   /xrad exch def
   /y exch def
   /x exch def   /savematrix mtrx currentmatrix def
   x y tr xrad yrad sc
   0 0 1 startangle endangle arc
   savematrix setmatrix
   end
} def

/mergeprocs {
dup length
3 -1 roll
dup
length
dup
5 1 roll
3 -1 roll
add
array cvx
dup
3 -1 roll
0 exch
putinterval
dup
4 2 roll
putinterval
} bind def
/Times-Roman-latin1
    /Times-Roman findfont
    dup length dict begin
	{1 index /FID ne {def} {pop pop} ifelse} forall
	/Encoding isolatin1encoding def
    currentdict end
definefont pop
/Times-Italic-latin1
    /Times-Italic findfont
    dup length dict begin
	{1 index /FID ne {def} {pop pop} ifelse} forall
	/Encoding isolatin1encoding def
    currentdict end
definefont pop
/Times-Bold-latin1
    /Times-Bold findfont
    dup length dict begin
	{1 index /FID ne {def} {pop pop} ifelse} forall
	/Encoding isolatin1encoding def
    currentdict end
definefont pop
/Times-BoldItalic-latin1
    /Times-BoldItalic findfont
    dup length dict begin
	{1 index /FID ne {def} {pop pop} ifelse} forall
	/Encoding isolatin1encoding def
    currentdict end
definefont pop
/AvantGarde-Gothic-latin1
    /AvantGarde-Gothic findfont
    dup length dict begin
	{1 index /FID ne {def} {pop pop} ifelse} forall
	/Encoding isolatin1encoding def
    currentdict end
definefont pop
/AvantGarde-BookOblique-latin1
    /AvantGarde-BookOblique findfont
    dup length dict begin
	{1 index /FID ne {def} {pop pop} ifelse} forall
	/Encoding isolatin1encoding def
    currentdict end
definefont pop
/AvantGarde-Demi-latin1
    /AvantGarde-Demi findfont
    dup length dict begin
	{1 index /FID ne {def} {pop pop} ifelse} forall
	/Encoding isolatin1encoding def
    currentdict end
definefont pop
/AvantGarde-DemiOblique-latin1
    /AvantGarde-DemiOblique findfont
    dup length dict begin
	{1 index /FID ne {def} {pop pop} ifelse} forall
	/Encoding isolatin1encoding def
    currentdict end
definefont pop
/Bookman-Light-latin1
    /Bookman-Light findfont
    dup length dict begin
	{1 index /FID ne {def} {pop pop} ifelse} forall
	/Encoding isolatin1encoding def
    currentdict end
definefont pop
/Bookman-LightItalic-latin1
    /Bookman-LightItalic findfont
    dup length dict begin
	{1 index /FID ne {def} {pop pop} ifelse} forall
	/Encoding isolatin1encoding def
    currentdict end
definefont pop
/Bookman-Demi-latin1
    /Bookman-Demi findfont
    dup length dict begin
	{1 index /FID ne {def} {pop pop} ifelse} forall
	/Encoding isolatin1encoding def
    currentdict end
definefont pop
/Bookman-DemiItalic-latin1
    /Bookman-DemiItalic findfont
    dup length dict begin
	{1 index /FID ne {def} {pop pop} ifelse} forall
	/Encoding isolatin1encoding def
    currentdict end
definefont pop
/Courier-latin1
    /Courier findfont
    dup length dict begin
	{1 index /FID ne {def} {pop pop} ifelse} forall
	/Encoding isolatin1encoding def
    currentdict end
definefont pop
/Courier-Oblique-latin1
    /Courier-Oblique findfont
    dup length dict begin
	{1 index /FID ne {def} {pop pop} ifelse} forall
	/Encoding isolatin1encoding def
    currentdict end
definefont pop
/Courier-Bold-latin1
    /Courier-Bold findfont
    dup length dict begin
	{1 index /FID ne {def} {pop pop} ifelse} forall
	/Encoding isolatin1encoding def
    currentdict end
definefont pop
/Courier-BoldOblique-latin1
    /Courier-BoldOblique findfont
    dup length dict begin
	{1 index /FID ne {def} {pop pop} ifelse} forall
	/Encoding isolatin1encoding def
    currentdict end
definefont pop
/Helvetica-latin1
    /Helvetica findfont
    dup length dict begin
	{1 index /FID ne {def} {pop pop} ifelse} forall
	/Encoding isolatin1encoding def
    currentdict end
definefont pop
/Helvetica-Oblique-latin1
    /Helvetica-Oblique findfont
    dup length dict begin
	{1 index /FID ne {def} {pop pop} ifelse} forall
	/Encoding isolatin1encoding def
    currentdict end
definefont pop
/Helvetica-Bold-latin1
    /Helvetica-Bold findfont
    dup length dict begin
	{1 index /FID ne {def} {pop pop} ifelse} forall
	/Encoding isolatin1encoding def
    currentdict end
definefont pop
/Helvetica-BoldOblique-latin1
    /Helvetica-BoldOblique findfont
    dup length dict begin
	{1 index /FID ne {def} {pop pop} ifelse} forall
	/Encoding isolatin1encoding def
    currentdict end
definefont pop
/Helvetica-Narrow-latin1
    /Helvetica-Narrow findfont
    dup length dict begin
	{1 index /FID ne {def} {pop pop} ifelse} forall
	/Encoding isolatin1encoding def
    currentdict end
definefont pop
/Helvetica-Narrow-Oblique-latin1
    /Helvetica-Narrow-Oblique findfont
    dup length dict begin
	{1 index /FID ne {def} {pop pop} ifelse} forall
	/Encoding isolatin1encoding def
    currentdict end
definefont pop
/Helvetica-Narrow-Bold-latin1
    /Helvetica-Narrow-Bold findfont
    dup length dict begin
	{1 index /FID ne {def} {pop pop} ifelse} forall
	/Encoding isolatin1encoding def
    currentdict end
definefont pop
/Helvetica-Narrow-BoldOblique-latin1
    /Helvetica-Narrow-BoldOblique findfont
    dup length dict begin
	{1 index /FID ne {def} {pop pop} ifelse} forall
	/Encoding isolatin1encoding def
    currentdict end
definefont pop
/NewCenturySchlbk-Roman-latin1
    /NewCenturySchlbk-Roman findfont
    dup length dict begin
	{1 index /FID ne {def} {pop pop} ifelse} forall
	/Encoding isolatin1encoding def
    currentdict end
definefont pop
/NewCenturySchlbk-Italic-latin1
    /NewCenturySchlbk-Italic findfont
    dup length dict begin
	{1 index /FID ne {def} {pop pop} ifelse} forall
	/Encoding isolatin1encoding def
    currentdict end
definefont pop
/NewCenturySchlbk-Bold-latin1
    /NewCenturySchlbk-Bold findfont
    dup length dict begin
	{1 index /FID ne {def} {pop pop} ifelse} forall
	/Encoding isolatin1encoding def
    currentdict end
definefont pop
/NewCenturySchlbk-BoldItalic-latin1
    /NewCenturySchlbk-BoldItalic findfont
    dup length dict begin
	{1 index /FID ne {def} {pop pop} ifelse} forall
	/Encoding isolatin1encoding def
    currentdict end
definefont pop
/Palatino-Roman-latin1
    /Palatino-Roman findfont
    dup length dict begin
	{1 index /FID ne {def} {pop pop} ifelse} forall
	/Encoding isolatin1encoding def
    currentdict end
definefont pop
/Palatino-Italic-latin1
    /Palatino-Italic findfont
    dup length dict begin
	{1 index /FID ne {def} {pop pop} ifelse} forall
	/Encoding isolatin1encoding def
    currentdict end
definefont pop
/Palatino-Bold-latin1
    /Palatino-Bold findfont
    dup length dict begin
	{1 index /FID ne {def} {pop pop} ifelse} forall
	/Encoding isolatin1encoding def
    currentdict end
definefont pop
/Palatino-BoldItalic-latin1
    /Palatino-BoldItalic findfont
    dup length dict begin
	{1 index /FID ne {def} {pop pop} ifelse} forall
	/Encoding isolatin1encoding def
    currentdict end
definefont pop
/Symbol-latin1
    /Symbol findfont
definefont pop
/ZapfChancery-MediumItalic-latin1
    /ZapfChancery-MediumItalic findfont
    dup length dict begin
	{1 index /FID ne {def} {pop pop} ifelse} forall
	/Encoding isolatin1encoding def
    currentdict end
definefont pop
/ZapfDingbats-latin1
    /ZapfDingbats findfont
    dup length dict begin
	{1 index /FID ne {def} {pop pop} ifelse} forall
	/Encoding isolatin1encoding def
    currentdict end
definefont pop
28.346000 -28.346000 scale
-21.200000 -27.852500 translate
%%EndProlog


0.100000 slw
[] 0 sd
1.000000 1.000000 1.000000 srgb
n 21.250000 11.100000 m 21.750000 10.600000 l 28.932500 10.600000 l 28.932500 12.400000 l 28.432500 12.900000 l 21.250000 12.900000 l 21.250000 11.100000 l ef
0.000000 0.000000 0.000000 srgb
n 21.250000 11.100000 m 21.750000 10.600000 l 28.932500 10.600000 l 28.932500 12.400000 l 28.432500 12.900000 l 21.250000 12.900000 l 21.250000 11.100000 l cp s
n 21.250000 11.100000 m 28.432500 11.100000 l s
n 28.432500 11.100000 m 28.932500 10.600000 l s
n 28.432500 11.100000 m 28.432500 12.900000 l s
/Helvetica-latin1 ff 0.560000 scf sf
(University rankings) 21.750000 12.035000 m
 gs 1 -1 sc sh gr
0.050000 slw
n 21.750000 12.347500 m 27.932500 12.347500 l s
0.100000 slw
[] 0 sd
1.000000 1.000000 1.000000 srgb
n 36.965000 16.805000 m 37.465000 16.305000 l 44.647500 16.305000 l 44.647500 18.105000 l 44.147500 18.605000 l 36.965000 18.605000 l 36.965000 16.805000 l ef
0.000000 0.000000 0.000000 srgb
n 36.965000 16.805000 m 37.465000 16.305000 l 44.647500 16.305000 l 44.647500 18.105000 l 44.147500 18.605000 l 36.965000 18.605000 l 36.965000 16.805000 l cp s
n 36.965000 16.805000 m 44.147500 16.805000 l s
n 44.147500 16.805000 m 44.647500 16.305000 l s
n 44.147500 16.805000 m 44.147500 18.605000 l s
/Helvetica-latin1 ff 0.560000 scf sf
(LinkedMDB) 37.465000 17.740000 m
 gs 1 -1 sc sh gr
0.050000 slw
n 37.465000 18.052500 m 41.040000 18.052500 l s
0.100000 slw
[] 0 sd
1.000000 1.000000 1.000000 srgb
n 21.265000 16.805000 m 21.765000 16.305000 l 28.947500 16.305000 l 28.947500 18.105000 l 28.447500 18.605000 l 21.265000 18.605000 l 21.265000 16.805000 l ef
0.000000 0.000000 0.000000 srgb
n 21.265000 16.805000 m 21.765000 16.305000 l 28.947500 16.305000 l 28.947500 18.105000 l 28.447500 18.605000 l 21.265000 18.605000 l 21.265000 16.805000 l cp s
n 21.265000 16.805000 m 28.447500 16.805000 l s
n 28.447500 16.805000 m 28.947500 16.305000 l s
n 28.447500 16.805000 m 28.447500 18.605000 l s
/Helvetica-latin1 ff 0.560000 scf sf
(Dbpedia) 21.765000 17.740000 m
 gs 1 -1 sc sh gr
0.050000 slw
n 21.765000 18.052500 m 24.445000 18.052500 l s
/Helvetica-latin1 ff 0.560000 scf sf
(Used as "root" of the graph) 21.300000 8.940000 m
 gs 1 -1 sc sh gr
/Helvetica-latin1 ff 0.560000 scf sf
("Common link"  &) 22.400000 19.940000 m
 gs 1 -1 sc sh gr
(images) 22.400000 20.740000 m
 gs 1 -1 sc sh gr
/Helvetica-latin1 ff 0.560000 scf sf
0.100000 slw
[] 0 sd
[] 0 sd
0 slj
0 slc
n 24.841250 12.900000 m 24.841250 14.577323 l 24.856250 14.577323 l 24.856250 15.767843 l s
[] 0 sd
0 slj
0 slc
n 24.856250 16.142843 m 24.606250 15.642843 l 24.856250 15.767843 l 25.106250 15.642843 l ef
n 24.856250 16.142843 m 24.606250 15.642843 l 24.856250 15.767843 l 25.106250 15.642843 l cp s
0.100000 slw
[] 0 sd
[] 0 sd
0 slj
0 slc
n 28.447500 17.705000 m 28.497500 17.705000 l 36.915000 17.705000 l 36.478197 17.705000 l s
[] 0 sd
0 slj
0 slc
n 36.853197 17.705000 m 37.353197 17.455000 l 37.228197 17.705000 l 37.353197 17.955000 l ef
n 36.853197 17.705000 m 37.353197 17.455000 l 37.228197 17.705000 l 37.353197 17.955000 l cp s
0.100000 slw
[] 0 sd
1.000000 1.000000 1.000000 srgb
n 38.850000 24.500000 m 39.350000 24.000000 l 42.910000 24.000000 l 42.910000 25.800000 l 42.410000 26.300000 l 38.850000 26.300000 l 38.850000 24.500000 l ef
0.000000 0.000000 0.000000 srgb
n 38.850000 24.500000 m 39.350000 24.000000 l 42.910000 24.000000 l 42.910000 25.800000 l 42.410000 26.300000 l 38.850000 26.300000 l 38.850000 24.500000 l cp s
n 38.850000 24.500000 m 42.410000 24.500000 l s
n 42.410000 24.500000 m 42.910000 24.000000 l s
n 42.410000 24.500000 m 42.410000 26.300000 l s
/Helvetica-latin1 ff 0.560000 scf sf
(Youtube) 39.350000 25.435000 m
 gs 1 -1 sc sh gr
0.050000 slw
n 39.350000 25.747500 m 41.910000 25.747500 l s
/Helvetica-latin1 ff 0.560000 scf sf
(\(extra\)) 39.750000 27.540000 m
 gs 1 -1 sc sh gr
/Helvetica-latin1 ff 0.560000 scf sf
(Film data) 42.050000 14.990000 m
 gs 1 -1 sc sh gr
0.100000 slw
[] 0 sd
[] 0 sd
0 slj
0 slc
n 40.650000 18.750000 m 40.650000 21.349823 l 40.630000 21.349823 l 40.630000 23.462843 l s
[] 0 sd
0 slj
0 slc
n 40.630000 23.837843 m 40.380000 23.337843 l 40.630000 23.462843 l 40.880000 23.337843 l ef
n 40.630000 23.837843 m 40.380000 23.337843 l 40.630000 23.462843 l 40.880000 23.337843 l cp s
showpage
